<?xml version="1.0" encoding="utf-8"?>
<!-- Generator: Adobe Illustrator 25.4.1, SVG Export Plug-In . SVG Version: 6.00 Build 0)  -->
<svg version="1.1" id="Слой_1" xmlns="http://www.w3.org/2000/svg" xmlns:xlink="http://www.w3.org/1999/xlink" x="0px" y="0px"
	 viewBox="0 0 97.9 158.5" style="enable-background:new 0 0 97.9 158.5;" xml:space="preserve">
<style type="text/css">
	.st0{fill:#9F9F9F;stroke:#000000;stroke-width:2;stroke-linecap:round;stroke-linejoin:round;stroke-miterlimit:10;}
</style>
<g>
	<path class="st0" d="M5.7,27.5c35.1,0.6,60.7,0.5,86.5,0c0,0-7,113.1-8,119.6s-1.5,8.5-7,9.5s-49.9,1.1-54,0s-5-1.1-6-7.1L5.7,27.5
		z"/>
	<path class="st0" d="M3.3,17.8c2.4-1.2,75.5-0.7,90.9,0c1.1,1.3,0.5,3.7,0.5,3.7S4.3,23.1,3.3,22.1S3.3,17.8,3.3,17.8z"/>
	<path class="st0" d="M2.3,21.6l93.9-0.1c0,0,1,4.5,0.1,5.6c-1.8,1.2-94.6,1.3-95,0C0.9,25.8,2.3,21.6,2.3,21.6z"/>
	<path class="st0" d="M8.3,6.5c10.9-2.6,40.8-7.2,70.9-4.9c0,0,3.5,0.4,6,1.4s6,5.5,6,5.5v9.1h-42L6.3,17.4L8.3,6.5z"/>
	<path class="st0" d="M7.7,48c0.1,0.7,4.7,49,6.1,64.9c0.6,6.4,72.6,5.5,72.8,0.2c0.9-21.1,4.1-63.8,4.2-64.8
		C91,46.5,7.5,45.9,7.7,48z"/>
</g>
</svg>
